{
	"groups": [
		{
			"keys": "checkbox_select_disabled_png,checkbox_select_down_png,checkbox_select_up_png,checkbox_unselect_png,handle_png,off_png,on_png,button_down_png,button_up_png,description_json,gameEui_json,dibiao-baise_png,1X1_png,jinbi_0_png,jinbi_1_png,jinbi_3_png,jinbi_2_png,zuanshi_png,chezhan_png,yinhang_png,shizhengting_png,car_0_0_png,car_0_1_png,car_0_2_png,car_0_3_png,bulldoze_PNG,hammer_PNG,bulldoze_png,hammer_png,car_2_0_png,car_2_1_png,car_2_2_png,car_2_3_png,car_3_0_png,car_3_1_png,car_3_2_png,car_3_3_png,car_4_0_png,car_4_1_png,car_4_2_png,car_4_3_png,car_5_0_png,car_5_1_png,car_5_2_png,car_5_3_png,car_6_0_png,car_6_1_png,car_6_2_png,car_6_3_png,car_7_0_png,car_7_1_png,car_7_2_png,car_7_3_png,car_9_0_png,car_9_1_png,car_9_2_png,car_9_3_png,car_1_0_png,car_1_1_png,car_1_2_png,car_1_3_png,car_8_0_png,car_8_1_png,car_8_2_png,car_8_3_png,arrow1_png,dikuai_png,dibiao_png,windturbine_fan0_png,windturbine_fan1_png,windturbine_stick_png,tree_1_png,dibiao_1_png,road1_corner_you_png,road1_corner_shang_png,road1_youshangzuoxia_png,road2_corner_shang_png,road2_youshangzuoxia_png,road2_corner_you_png,0_png,1_png,2_png,3_png,4_png,5_png,6_png,7_png,8_png,9_png,icon (1)_png,icon (2)_png,icon (3)_png,icon (4)_png,icon (5)_png,population_png,diamond_png,next_city_png,task_png,exclamation_png,coin_png,gou_png,moutain_1_png,1x1_1_png,1x1_2_png,1x1_3_png,1x1_4_png,shuita_png,yigoudi_png,zidongshouhuoji_png,BaseRect_png",
			"name": "preload"
		}
	],
	"resources": [
		{
			"url": "assets/CheckBox/checkbox_select_disabled.png",
			"type": "image",
			"name": "checkbox_select_disabled_png"
		},
		{
			"url": "assets/CheckBox/checkbox_select_down.png",
			"type": "image",
			"name": "checkbox_select_down_png"
		},
		{
			"url": "assets/CheckBox/checkbox_select_up.png",
			"type": "image",
			"name": "checkbox_select_up_png"
		},
		{
			"url": "assets/CheckBox/checkbox_unselect.png",
			"type": "image",
			"name": "checkbox_unselect_png"
		},
		{
			"url": "assets/ToggleSwitch/handle.png",
			"type": "image",
			"name": "handle_png"
		},
		{
			"url": "assets/ToggleSwitch/off.png",
			"type": "image",
			"name": "off_png"
		},
		{
			"url": "assets/ToggleSwitch/on.png",
			"type": "image",
			"name": "on_png"
		},
		{
			"url": "assets/Button/button_down.png",
			"type": "image",
			"name": "button_down_png"
		},
		{
			"url": "assets/Button/button_up.png",
			"type": "image",
			"name": "button_up_png"
		},
		{
			"name": "description_json",
			"type": "json",
			"url": "config/description.json"
		},
		{
			"name": "gameEui_json",
			"type": "json",
			"url": "gameEui.json"
		},
		{
			"name": "dibiao-baise_png",
			"type": "image",
			"url": "assets/Spr/dibiao-baise.png"
		},
		{
			"name": "1X1_png",
			"type": "image",
			"url": "assets/Spr/1X1.png"
		},
		{
			"name": "jinbi_0_png",
			"type": "image",
			"url": "assets/Spr/JinBi/XiaoJinBi/jinbi_0.png"
		},
		{
			"name": "jinbi_1_png",
			"type": "image",
			"url": "assets/Spr/JinBi/XiaoJinBi/jinbi_1.png"
		},
		{
			"name": "jinbi_3_png",
			"type": "image",
			"url": "assets/Spr/JinBi/XiaoJinBi/jinbi_3.png"
		},
		{
			"name": "jinbi_2_png",
			"type": "image",
			"url": "assets/Spr/JinBi/XiaoJinBi/jinbi_2.png"
		},
		{
			"name": "zuanshi_png",
			"type": "image",
			"url": "assets/Spr/UI/zuanshi.png"
		},
		{
			"name": "chezhan_png",
			"type": "image",
			"url": "assets/Spr/Building/chezhan.png"
		},
		{
			"name": "yinhang_png",
			"type": "image",
			"url": "assets/Spr/Building/yinhang.png"
		},
		{
			"name": "shizhengting_png",
			"type": "image",
			"url": "assets/Spr/Building/shizhengting.png"
		},
		{
			"name": "car_0_0_png",
			"type": "image",
			"url": "assets/Spr/Car/0/car_0_0.png"
		},
		{
			"name": "car_0_1_png",
			"type": "image",
			"url": "assets/Spr/Car/0/car_0_1.png"
		},
		{
			"name": "car_0_2_png",
			"type": "image",
			"url": "assets/Spr/Car/0/car_0_2.png"
		},
		{
			"name": "car_0_3_png",
			"type": "image",
			"url": "assets/Spr/Car/0/car_0_3.png"
		},
		{
			"name": "bulldoze_PNG",
			"type": "bin",
			"url": "assets/Spr/UI/bulldoze.PNG"
		},
		{
			"name": "hammer_PNG",
			"type": "bin",
			"url": "assets/Spr/UI/hammer.PNG"
		},
		{
			"name": "bulldoze_png",
			"type": "image",
			"url": "assets/Spr/UI/bulldoze.png"
		},
		{
			"name": "hammer_png",
			"type": "image",
			"url": "assets/Spr/UI/hammer.png"
		},
		{
			"name": "car_2_0_png",
			"type": "image",
			"url": "assets/Spr/Car/2/car_2_0.png"
		},
		{
			"name": "car_2_1_png",
			"type": "image",
			"url": "assets/Spr/Car/2/car_2_1.png"
		},
		{
			"name": "car_2_2_png",
			"type": "image",
			"url": "assets/Spr/Car/2/car_2_2.png"
		},
		{
			"name": "car_2_3_png",
			"type": "image",
			"url": "assets/Spr/Car/2/car_2_3.png"
		},
		{
			"name": "car_3_0_png",
			"type": "image",
			"url": "assets/Spr/Car/3/car_3_0.png"
		},
		{
			"name": "car_3_1_png",
			"type": "image",
			"url": "assets/Spr/Car/3/car_3_1.png"
		},
		{
			"name": "car_3_2_png",
			"type": "image",
			"url": "assets/Spr/Car/3/car_3_2.png"
		},
		{
			"name": "car_3_3_png",
			"type": "image",
			"url": "assets/Spr/Car/3/car_3_3.png"
		},
		{
			"name": "car_4_0_png",
			"type": "image",
			"url": "assets/Spr/Car/4/car_4_0.png"
		},
		{
			"name": "car_4_1_png",
			"type": "image",
			"url": "assets/Spr/Car/4/car_4_1.png"
		},
		{
			"name": "car_4_2_png",
			"type": "image",
			"url": "assets/Spr/Car/4/car_4_2.png"
		},
		{
			"name": "car_4_3_png",
			"type": "image",
			"url": "assets/Spr/Car/4/car_4_3.png"
		},
		{
			"name": "car_5_0_png",
			"type": "image",
			"url": "assets/Spr/Car/5/car_5_0.png"
		},
		{
			"name": "car_5_1_png",
			"type": "image",
			"url": "assets/Spr/Car/5/car_5_1.png"
		},
		{
			"name": "car_5_2_png",
			"type": "image",
			"url": "assets/Spr/Car/5/car_5_2.png"
		},
		{
			"name": "car_5_3_png",
			"type": "image",
			"url": "assets/Spr/Car/5/car_5_3.png"
		},
		{
			"name": "car_6_0_png",
			"type": "image",
			"url": "assets/Spr/Car/6/car_6_0.png"
		},
		{
			"name": "car_6_1_png",
			"type": "image",
			"url": "assets/Spr/Car/6/car_6_1.png"
		},
		{
			"name": "car_6_2_png",
			"type": "image",
			"url": "assets/Spr/Car/6/car_6_2.png"
		},
		{
			"name": "car_6_3_png",
			"type": "image",
			"url": "assets/Spr/Car/6/car_6_3.png"
		},
		{
			"name": "car_7_0_png",
			"type": "image",
			"url": "assets/Spr/Car/7/car_7_0.png"
		},
		{
			"name": "car_7_1_png",
			"type": "image",
			"url": "assets/Spr/Car/7/car_7_1.png"
		},
		{
			"name": "car_7_2_png",
			"type": "image",
			"url": "assets/Spr/Car/7/car_7_2.png"
		},
		{
			"name": "car_7_3_png",
			"type": "image",
			"url": "assets/Spr/Car/7/car_7_3.png"
		},
		{
			"name": "car_9_0_png",
			"type": "image",
			"url": "assets/Spr/Car/9/car_9_0.png"
		},
		{
			"name": "car_9_1_png",
			"type": "image",
			"url": "assets/Spr/Car/9/car_9_1.png"
		},
		{
			"name": "car_9_2_png",
			"type": "image",
			"url": "assets/Spr/Car/9/car_9_2.png"
		},
		{
			"name": "car_9_3_png",
			"type": "image",
			"url": "assets/Spr/Car/9/car_9_3.png"
		},
		{
			"name": "car_1_0_png",
			"type": "image",
			"url": "assets/Spr/Car/1/car_1_0.png"
		},
		{
			"name": "car_1_1_png",
			"type": "image",
			"url": "assets/Spr/Car/1/car_1_1.png"
		},
		{
			"name": "car_1_2_png",
			"type": "image",
			"url": "assets/Spr/Car/1/car_1_2.png"
		},
		{
			"name": "car_1_3_png",
			"type": "image",
			"url": "assets/Spr/Car/1/car_1_3.png"
		},
		{
			"name": "car_8_0_png",
			"type": "image",
			"url": "assets/Spr/Car/8/car_8_0.png"
		},
		{
			"name": "car_8_1_png",
			"type": "image",
			"url": "assets/Spr/Car/8/car_8_1.png"
		},
		{
			"name": "car_8_2_png",
			"type": "image",
			"url": "assets/Spr/Car/8/car_8_2.png"
		},
		{
			"name": "car_8_3_png",
			"type": "image",
			"url": "assets/Spr/Car/8/car_8_3.png"
		},
		{
			"name": "arrow1_png",
			"type": "image",
			"url": "assets/Spr/UI/arrow1.png"
		},
		{
			"name": "dikuai_png",
			"type": "image",
			"url": "assets/Spr/dikuai.png"
		},
		{
			"name": "dibiao_png",
			"type": "image",
			"url": "assets/Spr/dibiao.png"
		},
		{
			"name": "windturbine_fan0_png",
			"type": "image",
			"url": "assets/Spr/wind_turbine/windturbine_fan0.png"
		},
		{
			"name": "windturbine_fan1_png",
			"type": "image",
			"url": "assets/Spr/wind_turbine/windturbine_fan1.png"
		},
		{
			"name": "windturbine_stick_png",
			"type": "image",
			"url": "assets/Spr/wind_turbine/windturbine_stick.png"
		},
		{
			"name": "tree_1_png",
			"type": "image",
			"url": "assets/Spr/TownsRes/huyunxiaozhen/tree_1.png"
		},
		{
			"name": "dibiao_1_png",
			"type": "image",
			"url": "assets/Spr/TownsRes/huyunxiaozhen/dibiao_1.png"
		},
		{
			"name": "road1_corner_you_png",
			"type": "image",
			"url": "assets/Spr/roads/road1_corner_you.png"
		},
		{
			"name": "road1_corner_shang_png",
			"type": "image",
			"url": "assets/Spr/roads/road1_corner_shang.png"
		},
		{
			"name": "road1_youshangzuoxia_png",
			"type": "image",
			"url": "assets/Spr/roads/road1_youshangzuoxia.png"
		},
		{
			"name": "road2_corner_shang_png",
			"type": "image",
			"url": "assets/Spr/roads/road2_corner_shang.png"
		},
		{
			"name": "road2_youshangzuoxia_png",
			"type": "image",
			"url": "assets/Spr/roads/road2_youshangzuoxia.png"
		},
		{
			"name": "road2_corner_you_png",
			"type": "image",
			"url": "assets/Spr/roads/road2_corner_you.png"
		},
		{
			"name": "0_png",
			"type": "image",
			"url": "assets/Spr/UI/0.png"
		},
		{
			"name": "1_png",
			"type": "image",
			"url": "assets/Spr/UI/1.png"
		},
		{
			"name": "2_png",
			"type": "image",
			"url": "assets/Spr/UI/2.png"
		},
		{
			"name": "3_png",
			"type": "image",
			"url": "assets/Spr/UI/3.png"
		},
		{
			"name": "4_png",
			"type": "image",
			"url": "assets/Spr/UI/4.png"
		},
		{
			"name": "5_png",
			"type": "image",
			"url": "assets/Spr/UI/5.png"
		},
		{
			"name": "6_png",
			"type": "image",
			"url": "assets/Spr/UI/6.png"
		},
		{
			"name": "7_png",
			"type": "image",
			"url": "assets/Spr/UI/7.png"
		},
		{
			"name": "8_png",
			"type": "image",
			"url": "assets/Spr/UI/8.png"
		},
		{
			"name": "9_png",
			"type": "image",
			"url": "assets/Spr/UI/9.png"
		},
		{
			"name": "icon (1)_png",
			"type": "image",
			"url": "assets/Spr/UI/icon (1).png"
		},
		{
			"name": "icon (2)_png",
			"type": "image",
			"url": "assets/Spr/UI/icon (2).png"
		},
		{
			"name": "icon (3)_png",
			"type": "image",
			"url": "assets/Spr/UI/icon (3).png"
		},
		{
			"name": "icon (4)_png",
			"type": "image",
			"url": "assets/Spr/UI/icon (4).png"
		},
		{
			"name": "icon (5)_png",
			"type": "image",
			"url": "assets/Spr/UI/icon (5).png"
		},
		{
			"name": "population_png",
			"type": "image",
			"url": "assets/Spr/UI/population.png"
		},
		{
			"name": "diamond_png",
			"type": "image",
			"url": "assets/Spr/UI/diamond.png"
		},
		{
			"name": "next_city_png",
			"type": "image",
			"url": "assets/Spr/UI/next_city.png"
		},
		{
			"name": "task_png",
			"type": "image",
			"url": "assets/Spr/UI/task.png"
		},
		{
			"name": "exclamation_png",
			"type": "image",
			"url": "assets/Spr/UI/exclamation.png"
		},
		{
			"name": "coin_png",
			"type": "image",
			"url": "assets/Spr/UI/coin.png"
		},
		{
			"name": "gou_png",
			"type": "image",
			"url": "assets/Spr/UI/gou.png"
		},
		{
			"name": "moutain_1_png",
			"type": "image",
			"url": "assets/Spr/TownsRes/huyunxiaozhen/moutain_1.png"
		},
		{
			"name": "1x1_1_png",
			"type": "image",
			"url": "assets/Spr/1x1/1x1_1.png"
		},
		{
			"name": "1x1_2_png",
			"type": "image",
			"url": "assets/Spr/1x1/1x1_2.png"
		},
		{
			"name": "1x1_3_png",
			"type": "image",
			"url": "assets/Spr/1x1/1x1_3.png"
		},
		{
			"name": "1x1_4_png",
			"type": "image",
			"url": "assets/Spr/1x1/1x1_4.png"
		},
		{
			"name": "shuita_png",
			"type": "image",
			"url": "assets/Spr/Building/service/shuita.png"
		},
		{
			"name": "yigoudi_png",
			"type": "image",
			"url": "assets/Spr/Building/residential/yigoudi.png"
		},
		{
			"name": "zidongshouhuoji_png",
			"type": "image",
			"url": "assets/Spr/Building/business/zidongshouhuoji.png"
		},
		{
			"name": "BaseRect_png",
			"type": "image",
			"url": "assets/Spr/BaseRect.png"
		}
	]
}